{
    "global": {
        "check_for_updates_on_startup": true,
        "show_in_menu_bar": true,
        "show_profile_name_in_menu_bar": false
    },
    "profiles": [
        {
            "name": "Default profile",
            "selected": true,
            "simple_modifications": [],
            "fn_function_keys": [],
            "complex_modifications": {
                "parameters": {},
                "rules": [
                    {
                        "description": "Change right_shift x2 to mission_control",
                        "manipulators": [
                            {
                                "type": "basic",
                                "from": {
                                    "key_code": "right_shift",
                                    "modifiers": {
                                        "optional": ["any"]
                                    }
                                },
                                "to_if_alone": [
                                    {
                                        "key_code": "right_shift"
                                    }
                                ],
                                "to_if_held_down": [
                                    {
                                        "key_code": "mission_control"
                                    }
                                ],
                                "conditions": []
                            }
                        ]
                    }
                ]
            },
            "virtual_hid_keyboard": {
                "keyboard_type": "ansi",
                "caps_lock_delay_milliseconds": 0
            },
            "devices": [],
            "parameters": {}
        }
    ]
}
