{
    "description": "+5 | #APP-FLAMESHOT | Flameshot screenshot: left_command+left_alt+f (requires karabiner to have screen recording permission)",
    "manipulators": [
        {
            "type": "basic",
            "from": {
                "key_code": "f",
                "modifiers": {
                    "mandatory": [
                        "left_command",
                        "left_alt"
                    ],
                    "optional": [
                        "caps_lock"
                    ]
                }
            },
            "to": [
                {
                    "shell_command": "/Applications/flameshot.app/Contents/MacOS/flameshot gui"
                }
            ]
        }
    ]
}