{
    "description": "+30 | #MS-WORD-SHORTCUTS | Microsoft Word: Ctrl+V -> Paste Without Formatting",
    "manipulators": [
        {
            "type": "basic",
            "from": {
                "key_code": "v",
                "modifiers": {
                    "mandatory": [
                        "control"
                    ],
                    "optional": [
                        "caps_lock"
                    ]
                }
            },
            "to": [
                {
                    "key_code": "v",
                    "modifiers": [
                        "left_command",
                        "left_option",
                        "left_shift"
                    ]
                }
            ],
            "conditions": [
                {
                    "type": "frontmost_application_if",
                    "bundle_identifiers": [
                        "^com\\.microsoft\\.Word$"
                    ]
                }
            ]
        }
    ]
}